<?xml version="1.0" standalone="no"?>
<!DOCTYPE svg PUBLIC "-//W3C//DTD SVG 1.1//EN" "http://www.w3.org/Graphics/SVG/1.1/DTD/svg11.dtd">
<svg xmlns="http://www.w3.org/2000/svg">
<metadata>Copyright (C) 2014 by original authors @ fontello.com</metadata>
<defs>
<font id="icons" horiz-adv-x="1000" >
<font-face font-family="icons" font-weight="400" font-stretch="normal" units-per-em="1000" ascent="850" descent="-150" />
<missing-glyph horiz-adv-x="1000" />
<glyph glyph-name="basket" unicode="&#xe800;" d="m950 715q23 0 39-18t14-42l-53-365q-2-18-17-31t-34-12l-590 0 9-53 528 0q22 0 37-16t16-36-16-37-37-15l-572 0q-20 0-35 13t-16 30l-98 582-72 0q-22 0-37 15t-16 37 16 36 37 16l116 0q19 0 34-12t17-32l11-60 719 0z m-60-105l-200 0 0-103 185 0z m-252 0l-157 0 0-103 157 0 0 103z m0-156l-157 0 0-104 157 0 0 104z m-208 156l-182 0 18-105q3 2 8 2l156 0 0 103z m-156-156l17-104 139 0 0 104-156 0z m416-104l164 0 14 104-178 0 0-104z m-416-390q0 78 77 78 79 0 79-78 0-78-79-78-77 0-77 78z m469 0q0 78 77 78 79 0 79-78 0-78-79-78-77 0-77 78z" horiz-adv-x="1003" />
<glyph glyph-name="user" unicode="&#xe801;" d="m736 128q204-72 204-122l0-106-940 0 0 106q0 50 204 122 94 34 128 69t34 95q0 22-22 49t-32 73q-2 12-9 18t-14 8-14 17-9 43q0 16 5 26t9 12l4 4q-8 50-12 88-4 54 41 112t157 58 158-58 40-112l-12-88q18-8 18-42-2-28-9-43t-14-17-14-8-9-18q-8-48-31-74t-23-48q0-60 35-95t127-69z" horiz-adv-x="940" />
<glyph glyph-name="user-add" unicode="&#xe802;" d="m620 128q180-64 180-122l0-106-800 0 0 202q36 14 82 26 94 34 129 69t35 95q0 22-23 48t-31 74q-2 12-23 25t-25 61q0 16 5 26t9 12l4 4q-8 50-12 88-6 54 40 112t160 58 160-58 42-112l-14-88q18-8 18-42-2-28-9-43t-14-17-14-8-9-18q-10-46-33-73t-23-49q0-60 36-95t130-69z m230 272l150 0 0-100-150 0 0-150-100 0 0 150-150 0 0 100 150 0 0 150 100 0 0-150z" horiz-adv-x="1000" />
<glyph glyph-name="ok" unicode="&#xe803;" d="m932 534q0-22-15-38l-404-404-76-76q-16-15-38-15t-38 15l-76 76-202 202q-15 16-15 38t15 38l76 76q16 16 38 16t38-16l164-165 366 367q16 16 38 16t38-16l76-76q15-16 15-38z" horiz-adv-x="1000" />
<glyph glyph-name="search" unicode="&#xe804;" d="m643 386q0 103-74 176t-176 74-177-74-73-176 73-177 177-73 176 73 74 177z m286-465q0-29-22-50t-50-21q-30 0-50 21l-191 191q-100-69-223-69-80 0-153 31t-125 84-84 125-31 153 31 152 84 126 125 84 153 31 152-31 126-84 84-126 31-152q0-123-69-223l191-191q21-21 21-51z" horiz-adv-x="928.6" />
<glyph glyph-name="phone" unicode="&#xe805;" d="m786 158q0-15-6-39t-12-38q-11-28-68-60-52-28-103-28-16 0-30 2t-32 7-26 8-31 11-28 10q-54 20-97 47-72 44-148 120t-120 148q-27 43-46 97-2 5-10 28t-12 31-8 26-7 32-2 29q0 52 29 104 31 56 59 68 14 6 38 12t39 6q8 0 12-2 10-3 30-43 6-10 16-30t20-35 17-30q2-2 10-14t12-20 4-16q0-11-16-28t-35-30-34-30-16-25q0-5 3-13t4-11 8-14 7-10q42-77 97-132t131-97q1 0 10-6t14-8 11-5 13-2q10 0 25 15t30 35 31 35 28 16q7 0 15-4t20-12 14-10q14-8 30-17t35-20 31-17q39-19 42-29 2-4 2-12z" horiz-adv-x="785.7" />
<glyph glyph-name="cancel" unicode="&#xe806;" d="m724 112q0-22-15-38l-76-76q-16-15-38-15t-38 15l-164 165-164-165q-16-15-38-15t-38 15l-76 76q-16 16-16 38t16 38l164 164-164 164q-16 16-16 38t16 38l76 76q16 16 38 16t38-16l164-164 164 164q16 16 38 16t38-16l76-76q15-15 15-38t-15-38l-164-164 164-164q15-15 15-38z" horiz-adv-x="785.7" />
<glyph glyph-name="plus" unicode="&#xe807;" d="m786 439v-107q0-22-16-38t-38-15h-232v-233q0-22-16-37t-38-16h-107q-22 0-38 16t-15 37v233h-232q-23 0-38 15t-16 38v107q0 23 16 38t38 16h232v232q0 22 15 38t38 16h107q23 0 38-16t16-38v-232h232q22 0 38-16t16-38z" horiz-adv-x="785.7" />
<glyph glyph-name="minus" unicode="&#xe808;" d="m786 439v-107q0-22-16-38t-38-15h-678q-23 0-38 15t-16 38v107q0 23 16 38t38 16h678q22 0 38-16t16-38z" horiz-adv-x="785.7" />
<glyph glyph-name="key" unicode="&#xe809;" d="m774 612q20-116-28-215t-150-117q-66-12-130-2l-118-194-70-12-104-166q-14-28-46-32l-76-14q-12-4-22 4t-12 22l-16 98q-8 30 12 56l258 386q-24 50-38 120-18 106 53 187t185 101q106 20 195-45t107-177z m-126-76q30 44 21 97t-51 83q-42 32-92 22t-80-54q-8-12-12-23t-1-20 5-16 13-17 18-15 22-16 23-17q6-4 22-16t23-16 19-12 19-8 17 1 18 8 16 19z" horiz-adv-x="780" />
<glyph glyph-name="left-open" unicode="&#xe80a;" d="m0 353l391 391q18 18 43 18 24 0 43-18 18-18 18-44t-18-43l-304-304 304-305q18-17 18-43t-18-43q-18-18-43-18t-43 18z" horiz-adv-x="495.1" />
<glyph glyph-name="right-open" unicode="&#xe80b;" d="m0 0q0 25 18 43l305 304-305 304q-18 18-18 44t18 43 44 18 43-18l390-391-390-391q-19-18-43-18t-44 18q-18 18-18 44z" horiz-adv-x="495.1" />
<glyph glyph-name="down-open" unicode="&#xe80c;" d="m0 533q0 25 18 43t44 18 42-18l305-303 304 303q18 18 43 18t43-18q18-18 18-43t-18-43l-390-391-391 391q-18 19-18 43z" horiz-adv-x="817.4" />
<glyph glyph-name="up-open" unicode="&#xe80d;" d="m0 167q0 26 18 43l391 391 390-391q17-17 17-43 0-26-17-44-18-17-44-17t-43 17l-303 305-305-305q-18-17-43-17t-43 17q-18 18-18 44z" horiz-adv-x="816.9" />
<glyph glyph-name="facebook-rect" unicode="&#xe80e;" d="m183 850c-102 0-183-81-183-183l0-634c0-102 81-183 183-183l344 0 0 391-104 0 0 141 104 0 0 120c0 94 61 181 201 181 57 0 100-5 100-5l-4-132s-43 1-90 1c-50 0-58-24-58-62l0-103 152 0-6-141-146 0 0-391 141 0c102 0 183 81 183 183l0 634c0 102-81 183-183 183l-634 0z" horiz-adv-x="1000" />
<glyph glyph-name="tumblr-rect" unicode="&#xe80f;" d="m193 850c-107 0-193-86-193-193l0-614c0-107 86-193 193-193l614 0c107 0 193 86 193 193l0 614c0 107-86 193-193 193l-614 0z m242-141l99 0 0-177 166 0 0-109-166 0 0-179c0-40 2-66 7-78 4-11 12-20 23-27 16-9 33-14 53-14 36 0 71 12 106 35l0-110c-30-14-57-24-81-30-24-6-51-8-79-8-31 0-60 4-84 12-25 8-45 19-63 34-17 15-29 31-36 48-6 16-10 41-10 73l0 244-77 0 0 99c28 9 51 21 71 38 19 17 35 36 47 60 11 23 20 53 24 89z" horiz-adv-x="1000" />
<glyph glyph-name="vkontakte-rect" unicode="&#xe810;" d="m196 850c-108 0-196-88-196-196l0-608c0-108 88-196 196-196l608 0c108 0 196 88 196 196l0 608c0 108-88 196-196 196l-608 0z m112-226l197 0c41 0 73-1 94-4 21-4 41-10 59-20 20-11 35-25 45-43 10-18 15-39 15-63 0-27-7-51-21-72-13-22-32-37-56-47l0-3c34-8 62-22 83-45 21-22 31-52 31-90 0-28-5-52-16-73-10-21-24-39-42-53-21-16-44-28-70-35-25-7-56-10-95-10l-224 0 0 558z m140-102l0-118 17 0c24 0 41 0 51 0 9 1 19 3 30 8 11 5 19 13 23 22 4 9 6 20 6 32 0 9-2 19-7 28-4 10-11 16-21 21-10 4-20 6-33 6-13 1-32 1-57 1l-9 0z m0-214l0-140 7 0c37 0 62 0 76 1 14 0 28 4 43 10 13 6 22 14 28 24 6 11 8 23 8 36 0 18-3 31-10 41-7 10-18 17-32 22-8 3-20 5-35 6-14 0-34 0-59 0l-26 0z" horiz-adv-x="1000" />
<glyph glyph-name="odnoklassniki-rect" unicode="&#xe811;" d="m141 850c-78 0-141-63-141-141v-718c0-78 63-141 141-141h718c78 0 141 63 141 141v718c0 78-63 141-141 141h-718z m381-102c114 0 206-92 206-206 0-113-92-206-206-206-113 0-205 93-205 206 0 114 92 206 205 206z m-2-121c-46-1-83-39-83-85 0-47 38-85 85-85 47 0 86 38 86 85 0 47-39 85-86 85 0 0-1 0-2 0z m-168-298c11 0 22-3 32-9 84-53 193-53 277 0 28 18 65 9 83-19 18-28 9-65-19-83-37-23-77-40-119-50l115-115c23-23 23-61 0-85-24-23-62-23-85 0l-114 113-113-113c-11-12-27-18-42-18-16 0-31 6-43 18-23 24-23 62 0 85l115 115c-42 10-82 27-119 50-28 18-37 55-19 83 11 18 30 28 49 28 1 0 1 0 2 0z" horiz-adv-x="1000" />
<glyph glyph-name="clock" unicode="&#xe812;" d="m0 349q0 188 134 322t322 134 321-134 133-322-133-321-321-133-322 133-134 321z m119 0q0-140 99-238t238-99 238 99 99 238-99 238-238 99-238-99-99-238z m172-69l0 117 117 0 0 213 117 0 0-330-234 0z" horiz-adv-x="910" />
<glyph glyph-name="location" unicode="&#xe813;" d="m0 473q0 156 110 267t267 110 267-110 110-267q0-123-53-193l-324-430-324 430q-53 70-53 193z m219 0q0-66 46-112t112-46 112 46 46 112-46 112-112 46-112-46-46-112z" horiz-adv-x="754" />
<glyph glyph-name="edit" unicode="&#xe814;" d="m90 589l0-593 444 0 0 262 90 101 0-453-624 0 0 760 541 0-75-77-376 0z m749 180c35-34 32-88-3-124l-57-56 17 75-63 64-74-17 56 57c35 35 90 35 124 1z m-219-99c0 3 65 20 75 23l1 1 67-69c-4 0-23-75-23-75l-371-384-159-36-2 1 41 158z m-247-422l-45 46-35-6-23-22-10-40 46-45 39 9 23 23z" horiz-adv-x="864" />
<glyph glyph-name="camera" unicode="&#xe815;" d="m536 475q66 0 113-47t47-114-47-113-113-47-114 47-47 113 47 114 114 47z m393 232q59 0 101-42t41-101v-500q0-59-41-101t-101-42h-786q-59 0-101 42t-42 101v500q0 59 42 101t101 42h125l28 76q11 27 39 47t58 20h286q29 0 57-20t39-47l29-76h125z m-393-643q103 0 176 74t74 176-74 177-176 73-177-73-73-177 73-176 177-74z" horiz-adv-x="1071.4" />
<glyph glyph-name="truck" unicode="&#xe816;" d="m357 64q0 29-21 51t-50 21-50-21-22-51 22-50 50-21 50 21 21 50z m-214 286h214v143h-88q-7 0-12-5l-109-109q-5-5-5-12v-17z m714-286q0 29-21 51t-50 21-51-21-21-51 21-50 51-21 50 21 21 50z m143 607v-571q0-8-2-15t-8-10-9-6-13-4-13-1-14 0-12 0q0-59-42-101t-101-42-101 42-42 101h-214q0-59-42-101t-101-42-101 42-42 101h-36q-1 0-12 0t-15 0-12 1-13 4-9 6-8 10-2 15q0 15 10 25t25 11v178q0 5 0 20t0 21 2 19 3 21 8 17 13 17l110 110q11 11 28 18t33 7h89v107q0 15 11 26t25 10h571q15 0 25-10t11-26z" horiz-adv-x="1000" />
<glyph glyph-name="circle-empty" unicode="&#xe817;" d="m429 654q-83 0-153-41t-110-111-41-152 41-152 110-111 153-41 152 41 110 111 41 152-41 152-110 111-152 41z m428-304q0-117-57-215t-156-156-215-58-216 58-155 156-58 215 58 215 155 156 216 58 215-58 156-156 57-215z" horiz-adv-x="857.1" />
<glyph glyph-name="circle" unicode="&#xe818;" d="m857 350q0-117-57-215t-156-156-215-58-216 58-155 156-58 215 58 215 155 156 216 58 215-58 156-156 57-215z" horiz-adv-x="857.1" />
<glyph glyph-name="money" unicode="&#xe819;" d="m3 243q31 97 107 173 59 61 203 145 129 74 178 123 55 55 74 121 6 16 16 27 14 12 29 16 35 8 61-16l312-312q26-27 16-63-31-99-108-173-58-61-203-145-129-74-177-123-55-53-75-121-6-16-15-27-14-12-30-16-35-8-60 16l-313 312q-25 27-15 63z m60-18l99-99 115-115 99-99q25 79 84 140t128 102l138 80t129 101 83 140l-157 157-155 155q-24-78-83-139t-129-102l-139-80t-128-101-84-140z m274-199l21 29q22 27 47 53 22 23 55 49 11 9 21 0 12-12 0-24l-2 0q-31-25-52-47-24-23-43-48l-20-28q-2-2-2-4-12-12-23 0-8 10-2 20z m27 359q2 18 10 33 8 18 19 32 0 2-5 5-4 2-4 7t4 10 8 5 7-4q4-4 8-6 8 8 20 16t28 12 29 1 24-15q8-8 8-18t-8-15q-5-6-15-4-6 2-18 4-9 4-20 3t-23-11q20-20 51-57 14 8 31 14 16 6 32 8t31-3 31-17q14-12 20-25 4-14 2-30 0-15-10-33-8-19-22-37 8-6 16-13 4-2 5-7t-3-9-9-5-9 3q-9 8-15 16-18-18-35-24-16-6-34-6-15 2-28 8t-20 15-8 17 8 16 13 7 13-3 13-8 13-7 17 0 20 12q-21 21-56 62-32-17-65-19-29-2-50 15-14 12-20 26t-4 29z m42 11q-1-7 1-14t8-10q10-10 22-9t33 10q-30 32-49 51-6-8-10-14t-5-14z m112 143q-9 10 0 22 2 2 4 2 32 25 53 47 23 23 43 49l19 27q2 4 4 4 12 12 22 0 10-10 2-22l-22-29q-21-27-47-53-21-23-54-48-12-10-24 1z m4-195q32-35 53-56 6 5 10 13t6 16 0 14-9 14-15 9-15 1-16-5q-4-2-14-6z" horiz-adv-x="1001" />
<glyph glyph-name="apple" unicode="&#xe81a;" d="m777 172q-21-70-68-139-72-110-144-110-27 0-78 18-48 18-84 18-34 0-79-19-46-19-74-19-85 0-168 145-82 146-82 281 0 127 63 208 63 81 159 81 40 0 98-17 58-17 77-17 25 0 80 19 57 19 97 19 66 0 119-36 29-20 58-56-45-37-64-66-36-52-36-115 0-70 38-125t88-70z m-209 655q0-34-17-76-16-42-52-77-30-30-60-41-20-6-58-9 2 83 44 143 41 60 139 83 1-2 2-6t1-6q0-3 0-6t1-5z" horiz-adv-x="785.7" />
<glyph glyph-name="android-1" unicode="&#xe81b;" d="m0 201l0 269q0 26 19 45t44 18q26 0 45-18t18-45l0-269q0-26-18-44t-45-19-44 19-19 44z m173-100l0 418 574 0 0-418q0-26-18-44t-45-19l-448 0q-26 0-44 19t-19 44z m0 465l574 0q0 115-85 189t-202 74-202-74-85-189z m101 316q0 8 7 8 3 0 7-2l49-89-15-8q-48 88-48 91z m15-807q0 27 19 45t47 18q25 0 44-19t19-44l0-202q0-28-19-46t-47-17q-26 0-44 18t-19 45l0 202z m5 620q0 16 12 28t28 11 28-11 11-28q0-17-11-28t-29-12q-16 0-27 12t-12 28z m208-620q0 27 20 45t46 18q26 0 45-18t18-45l0-202q0-28-19-46t-47-17q-26 0-44 18t-19 45l0 202z m45 620q0 16 12 28t28 11 28-11 11-28q0-17-12-28t-28-12-27 12-12 28z m36 104q2 3 14 29t24 44 18 18 7-9l0-2-48-89z m211-598l0 268q0 26 19 45t44 19 45-19 18-45l0-268q0-26-18-44t-45-19-45 19-18 44z" horiz-adv-x="920" />
<glyph glyph-name="help-circled" unicode="&#xe81c;" d="m454 810q190 2 326-130t140-322q2-190-131-327t-323-141q-190-2-327 131t-139 323q-4 190 130 327t324 139z m-2-740q30 0 49 19t19 47q2 30-17 49t-49 19l-2 0q-28 0-47-18t-21-46q0-30 19-49t47-21l2 0z m166 328q26 34 26 78 0 78-54 116-52 38-134 38-64 0-104-26-68-42-72-146l0-4 110 0 0 4q0 26 16 54 16 24 54 24 40 0 52-20 16-20 16-44 0-18-16-40-8-12-20-20l-6-4q-6-4-16-11t-20-15-21-17-17-17q-14-20-18-78l0-8 108 0 0 4q0 12 4 28 6 20 28 36l28 18q46 34 56 50z" horiz-adv-x="920" />
<glyph glyph-name="info-circled" unicode="&#xe81d;" d="m454 810q190 2 326-130t140-322q2-190-131-327t-323-141q-190-2-327 131t-139 323q-4 190 130 327t324 139z m52-152q-42 0-65-24t-23-50q-2-28 15-44t49-16q38 0 61 22t23 54q0 58-60 58z m-120-594q30 0 84 26t106 78l-18 24q-48-36-72-36-14 0-4 38l42 160q26 96-22 96-30 0-89-29t-115-75l16-26q52 34 74 34 12 0 0-34l-36-152q-26-104 34-104z" horiz-adv-x="920" />
<glyph glyph-name="icq" unicode="&#xe81e;" d="m355 823c-31 7-57 4-84-10-29-18-46-47-53-86-7-41 0-80 21-120l10-14-34 11c-42 10-82 4-121-17-41-21-66-50-83-91-16-40-15-78 5-113 9-16 21-28 33-37 17-17 38-27 63-31l10-3-21-18c-20-17-31-38-38-59-7-26-4-51 10-75 7-11 14-21 25-28 11-10 25-17 42-18 31-7 64-7 99 4l-25-42-7-19c-15-45-10-84 11-125 10-16 21-30 32-43 17-15 38-25 64-32 42-11 84-10 125 11 40 21 65 55 78 98l1 8c27-30 52-49 80-56 29-9 57-7 82 10 24 14 41 38 50 67 7 31 7 62 0 97 14-9 28-16 45-21 45-14 84-12 124 9 38 21 63 55 76 99 11 42 8 83-13 122l-7 11c-11 17-22 34-39 46-14 9-31 16-47 24 44 21 75 50 89 88 10 31 7 57-7 82l0 3c-17 28-40 46-75 56-21 5-45 5-66 3l-47-10 16 36c14 45 10 88-14 129l-4 7c-22 36-53 57-95 68-44 11-84 7-124-14-39-21-68-54-80-96l0-3-2-10-5 10-14 26c-23 35-51 56-86 66z m359-85c7-14 11-31 11-49l-4-31c-5-16-13-30-21-42l-127-156c-13 10-27 17-41 24l-14 160-1 56 1 14c7 28 27 50 52 64 26 14 54 17 81 7 29-7 50-23 63-47z m-437-28c1 25 11 42 28 52 9 7 21 7 33 2 25-8 46-26 63-61 7-14 14-28 17-45l28-167-21-7-125 137-7 14c-12 26-19 50-16 75z m-76-165l38-15 124-91c-11-14-18-28-22-42l-204-25-14 2c-25 5-42 16-53 37-11 21-11 42-3 64 10 26 28 47 55 59 25 14 51 18 79 11z m134-230l10-28 4-10c-21-18-37-35-54-51l-42-35-11-7c-27-13-50-17-74-14-21 1-38 8-45 21l-4 16 3 12c7 21 25 43 58 58 17 7 31 14 42 17l113 21z m440 229c25 11 49 14 74 11 24-3 41-14 50-31l5-18-2-15c-10-25-31-45-67-60-14-7-29-10-46-13l-174-21-2 10-3 4 5 7 143 119 17 7z m-360-134c17 15 40 25 66 25 26 0 50-10 65-25 20-20 29-41 29-67s-9-49-29-66c-18-18-39-28-65-28-26 0-49 10-66 28-18 17-28 41-28 66s10 47 28 67z m33-205c2-48 7-98 14-153l0-57-2-14c-10-25-26-46-52-58-25-14-52-17-77-10-29 7-50 24-61 47-7 14-13 31-13 48l7 32c3 14 10 28 22 40l118 141c14-7 28-14 44-16z m108 19l59-61 37-45 7-14c13-24 20-47 17-74-3-25-11-43-28-50-10-7-21-7-33-6-26 7-48 28-63 62l-17 47-21 122 24 9 18 10z m64 87l159 14 56 1 14-1c22-7 41-20 53-41 14-15 21-36 21-60l-4-29c-7-28-24-49-48-60-26-14-51-17-79-7-17 4-29 11-38 22l-148 123 9 21 5 17z" horiz-adv-x="981" />
<glyph glyph-name="skype" unicode="&#xe81f;" d="m1000 122q0-113-81-193t-196-80q-69 0-130 32-46-8-88-8-196 0-336 138t-141 333q0 42 10 94-38 64-38 138 0 113 82 193t195 80q81 0 147-42 38 7 81 7 129 0 239-62t174-171 64-237q0-56-11-101 29-58 29-121z m-217 102q0 50-22 87t-57 56-79 34-86 23-78 18-58 25-22 39q0 34 37 50t75 15q40 0 67-12t38-30 22-35 25-30 40-13q28 0 49 19t20 46-15 54q-30 55-96 80t-141 25q-46 0-89-9t-85-28-66-57-25-87q0-66 41-106t99-57 116-29 99-33 40-59q0-42-42-62t-90-21q-45 0-74 15t-41 36-23 43-26 36-42 15q-28 0-49-17t-21-45q0-42 31-85 72-104 249-104 50 0 97 11t89 34 68 63 25 95z" horiz-adv-x="1000" />
<glyph glyph-name="mail" unicode="&#xe820;" d="m929 11v428q-18-20-39-37-149-114-238-188-28-24-46-38t-48-27-57-13h-2q-26 0-57 13t-48 27-46 38q-88 74-238 188-21 17-39 37v-428q0-8 6-13t12-5h822q7 0 12 5t6 13z m0 586v14t-1 7-1 7-3 5-5 4-8 2h-822q-7 0-12-6t-6-12q0-94 82-159 108-85 224-177 4-2 20-16t25-21 25-18 28-15 24-5h2q11 0 24 5t28 15 25 18 25 21 20 16q116 92 224 177 30 24 56 65t26 73z m71 21v-607q0-37-26-63t-63-27h-822q-36 0-63 27t-26 63v607q0 37 26 63t63 26h822q37 0 63-26t26-63z" horiz-adv-x="1000" />
<glyph glyph-name="spin5" unicode="&#xe821;" d="m462 850c-6 0-11-5-11-11l0-183 0 0c0-6 5-11 11-11l69 0c1 0 1 0 1 0 7 0 12 5 12 11l0 183 0 0c0 6-5 11-12 11l-69 0c0 0 0 0-1 0z m250-47c-4 1-8-2-10-5l-91-158 0 0c-4-6-2-13 4-16l60-35c0 0 0 0 0 0 6-3 13-1 16 4l91 158c3 6 2 13-4 16l-61 35c-1 1-3 1-5 1z m-428-2c-2 0-4-1-6-2l-61-35c-5-3-7-10-4-16l91-157c0 0 0 0 0 0 3-6 10-8 16-5l61 35c5 4 7 11 4 16l-91 157c0 1 0 1 0 1-2 4-6 6-10 6z m620-163c-2 0-4 0-6-1l-157-91c0 0 0 0 0 0-6-3-8-10-5-16l35-61c4-5 11-7 16-4l157 91c1 0 1 0 1 0 6 3 7 10 4 16l-35 61c-2 3-6 5-10 5z m-810-4c-5 0-9-2-11-6l-35-61c-3-5-1-12 4-15l158-92 0 0c6-3 13-1 16 5l35 60c0 0 0 0 0 0 3 6 1 13-4 16l-158 91c-2 1-4 2-5 2z m712-235l0 0c-6 0-11-5-11-11l0-69c0-1 0-1 0-1 0-7 5-12 11-12l183 0 0 0c6 0 11 5 11 12l0 69c0 0 0 0 0 1 0 6-5 11-11 11l-183 0z m-794-5l0 0c-7 0-12-5-12-12l0-69c0 0 0 0 0-1 0-6 5-11 12-11l182 0 0 0c6 0 11 5 11 11l0 69c0 1 0 1 0 1 0 7-5 12-11 12l-182 0z m772-153c-4 0-8-2-10-6l-34-60c-1 0-1 0-1 0-3-6-1-13 4-16l158-91c6-3 13-2 16 4l35 61c3 5 1 12-4 15l-158 91 0 0c-2 1-4 2-6 2z m-566-5c-1 0-3 0-5-1l-157-91c0 0-1 0-1 0-5-3-7-11-4-16l35-61c3-5 10-7 16-4l157 91c0 0 0 0 0 0 6 3 8 10 5 16l-35 61c-3 3-7 5-11 5z m468-121c-2 0-4 0-6-1l-61-35c-5-4-7-11-4-16l91-157c0-1 0-1 0-1 3-6 11-7 16-4l61 35c5 3 7 10 4 16l-91 157c0 0 0 0 0 0-2 4-6 6-10 6z m-367-3c-4 1-8-2-10-5l-91-158c-3-6-1-13 4-16l61-35c5-3 12-1 15 4l92 158 0 0c3 6 1 13-5 16l-60 34c0 1 0 1 0 1-2 1-4 1-6 1z m149-57c-7 0-12-5-12-11l0-183 0 0c0-6 5-11 12-11l69 0c0 0 0 0 1 0 6 0 11 5 11 11l0 183 0 0c0 6-5 11-11 11l-69 0c-1 0-1 0-1 0z" horiz-adv-x="1000" />
<glyph glyph-name="spin4" unicode="&#xe822;" d="m498 850c-114 0-228-39-320-116l0 0c173 140 428 130 588-31 134-134 164-332 89-495-10-29-5-50 12-68 21-20 61-23 84 0 3 3 12 15 15 24 71 180 33 393-112 539-99 98-228 147-356 147z m-409-274c-14 0-29-5-39-16-3-3-13-15-15-24-71-180-34-393 112-539 185-185 479-195 676-31l0 0c-173-140-428-130-589 31-134 134-163 333-89 495 11 29 6 50-12 68-11 11-27 17-44 16z" horiz-adv-x="1001" />
<glyph glyph-name="spin6" unicode="&#xe823;" d="m855 9c-189-190-520-172-705 13-190 190-200 494-28 695 11 13 21 26 35 34 36 23 85 18 117-13 30-31 35-76 16-112-5-9-9-15-16-22-140-151-145-379-8-516 153-153 407-121 542 34 106 122 142 297 77 451-83 198-305 291-510 222l0 1c236 82 492-24 588-252 71-167 37-355-72-493-11-15-23-29-36-42z" horiz-adv-x="1000" />
<glyph glyph-name="spin2" unicode="&#xe824;" d="m46 144l0 0c0 0-1 0-1 0-8 18-15 37-21 55-6 19-11 38-15 58-19 99-8 203 35 298 3 6 10 8 15 5 1 0 2 0 2-1l0 0 80-59c5-3 6-9 4-14-5-12-9-25-12-38-4-12-7-26-9-39-11-67-3-137 23-201 2-5 0-10-4-13l0 0-80-56c-5-4-12-3-16 3-1 0-1 1-1 2l0 0z m120 574l0 0c0 1 0 1 0 1 15 13 30 25 46 37 16 11 33 22 51 31 89 50 192 72 297 60 6-1 10-6 10-13 0-1-1-1-1-2l0 0-31-94c-2-5-8-8-13-7-13 0-27 0-40 0-14-1-27-2-40-4-68-11-133-40-186-84-4-3-10-3-14 0l0 0-79 58c-5 3-6 11-2 16 0 0 1 1 2 1l0 0z m588 65l0 0c0 0 1 0 1 0 17-10 34-21 50-32 16-12 31-25 46-38 74-69 127-160 148-262 2-6-2-12-9-13-1 0-1 0-2 0l0 0-100 1c-5 0-10 4-11 9-3 13-8 26-12 38-5 12-10 25-17 36-31 61-78 113-137 150-5 3-6 8-5 13l0 0 31 92c2 6 9 9 15 7 1 0 2-1 2-1l0 0z m244-535l0 0c0 0 0 0 0 0-4-20-9-39-15-57-7-19-14-37-22-55-44-92-114-170-205-221-6-3-13-1-16 4 0 1-1 2-1 2l0 0-30 94c-2 6 1 12 6 14 11 7 22 15 32 23 11 9 21 18 30 27 49 48 84 109 101 176 2 5 6 8 11 8l0 0 98-1c6 0 11-5 11-11 0-1 0-2 0-3l0 0z m-438-395l0 0c0 0 0 0 0 0-20-2-40-3-60-3-20 0-40 1-59 4-102 12-198 54-276 125-5 4-5 11 0 16 0 0 1 1 1 1l0 0 81 58c5 3 12 2 16-2 10-8 20-16 32-23 11-7 22-14 34-20 62-31 131-45 200-41 6 0 10-3 12-8l0 0 29-92c2-6-1-12-7-14-1-1-2-1-3-1l0 0z" horiz-adv-x="1000" />
<glyph glyph-name="spin1" unicode="&#xe825;" d="m496 850c-176 0-331-90-421-226-18-27-33-55-46-85-12-29-21-60-28-92 0 0 0-1 0-1l0 0 0 0c0-1 0-2 0-2 0-7 5-12 11-12l101 0c5 0 10 4 11 9 29 113 109 206 214 253 20 10 41 17 63 23 31 7 62 11 95 11l0 0 0 0 0 0c25 0 50-2 74-7 5-1 10-2 14-3 6-1 10-3 14-4l0 0c5-1 11 1 13 6l51 87c0 0 1 1 1 2 2 6-1 13-7 15-22 7-43 13-65 17-5 1-9 1-13 2-27 5-54 7-82 7l0 0 0 0z m327-114c-5 0-9-2-11-6l-50-87c-3-4-2-10 2-14 29-29 54-63 73-101 4-7 7-14 11-22 19-46 30-97 30-151l0 0 0 0c0-77-22-149-62-209-7-11-15-23-24-34-9-10-18-20-28-30l0 0 0 0 0 0c-4-4-5-10-2-14l50-87c0-1 1-2 2-3 4-5 11-5 16-1 58 52 104 117 134 190 6 14 11 29 15 44 14 46 21 94 21 144 0 108-34 209-92 291-11 16-23 31-37 46-13 14-26 28-41 41l0 0c-1 1-1 1-2 1-2 1-4 2-5 2z m-811-468l0 0c-1 0-2 0-3 0-6-1-10-8-9-14 34-166 149-302 302-366 30-12 61-21 93-28 32-6 66-10 100-10l0 0 0 0c40 0 79 5 117 14 7 1 14 3 22 5 6 2 13 5 20 7 1 0 2 1 3 1 6 3 8 10 4 16l-50 87c-3 5-8 7-13 6-14-4-28-7-42-9-3-1-6-1-8-2-18-2-35-3-53-3l0 0 0 0c-128 0-242 63-311 160-1 0-1 0-1 0-13 19-25 40-35 61-10 21-18 43-24 65-1 6-6 10-11 10l-101 0z" horiz-adv-x="1000" />
<glyph glyph-name="spin3" unicode="&#xe826;" d="m494 850c-266 0-483-210-494-472-1-19 13-20 13-20l84 0c16 0 19 10 19 18 10 199 176 358 378 358 107 0 205-45 273-118l-58-57c-11-12-11-27 5-31l247-50c21-5 46 11 37 44l-58 227c-2 9-16 22-29 13l-65-60c-89 91-214 148-352 148z m409-508c-16 0-19-10-19-18-10-199-176-358-377-358-108 0-205 45-274 118l59 57c10 12 10 27-5 31l-248 50c-21 5-46-11-37-44l58-227c2-9 16-22 30-13l64 60c89-91 214-148 353-148 265 0 482 210 493 473 1 18-13 19-13 19l-84 0z" horiz-adv-x="1000" />
</font>
</defs>
</svg>